{
    "_links": {
        "self": {
            "href": "http:\/\/default\/taxonomy\/term\/15?_format=hal_json"
        },
        "type": {
            "href": "http:\/\/drupal.org\/rest\/type\/taxonomy_term\/body_parts"
        },
        "http:\/\/drupal.org\/rest\/relation\/taxonomy_term\/body_parts\/parent": [
            null
        ]
    },
    "tid": [
        {
            "value": 15
        }
    ],
    "uuid": [
        {
            "value": "d93202ef-f425-4f72-9000-26a8c546ae92"
        }
    ],
    "langcode": [
        {
            "value": "en",
            "lang": "en"
        }
    ],
    "vid": [
        {
            "target_id": "body_parts"
        }
    ],
    "status": [
        {
            "value": true,
            "lang": "en"
        }
    ],
    "name": [
        {
            "value": "Ear",
            "lang": "en"
        }
    ],
    "weight": [
        {
            "value": 0
        }
    ],
    "_embedded": {
        "http:\/\/drupal.org\/rest\/relation\/taxonomy_term\/body_parts\/parent": [
            null
        ]
    },
    "changed": [
        {
            "value": "2019-05-21T09:16:03+00:00",
            "lang": "en",
            "format": "Y-m-d\\TH:i:sP"
        }
    ],
    "default_langcode": [
        {
            "value": true,
            "lang": "en"
        }
    ],
    "path": [
        {
            "alias": null,
            "pid": null,
            "langcode": "en",
            "lang": "en"
        }
    ]
}