{
    "_links": {
        "self": {
            "href": "http:\/\/default\/taxonomy\/term\/9?_format=hal_json"
        },
        "type": {
            "href": "http:\/\/drupal.org\/rest\/type\/taxonomy_term\/body_parts"
        },
        "http:\/\/drupal.org\/rest\/relation\/taxonomy_term\/body_parts\/parent": [
            null
        ]
    },
    "tid": [
        {
            "value": 9
        }
    ],
    "uuid": [
        {
            "value": "8335145e-cb14-4e8b-8858-f8ab2539dc78"
        }
    ],
    "langcode": [
        {
            "value": "en",
            "lang": "en"
        }
    ],
    "vid": [
        {
            "target_id": "body_parts"
        }
    ],
    "status": [
        {
            "value": true,
            "lang": "en"
        }
    ],
    "name": [
        {
            "value": "Stomach",
            "lang": "en"
        }
    ],
    "weight": [
        {
            "value": 0
        }
    ],
    "_embedded": {
        "http:\/\/drupal.org\/rest\/relation\/taxonomy_term\/body_parts\/parent": [
            null
        ]
    },
    "changed": [
        {
            "value": "2019-05-21T09:15:13+00:00",
            "lang": "en",
            "format": "Y-m-d\\TH:i:sP"
        }
    ],
    "default_langcode": [
        {
            "value": true,
            "lang": "en"
        }
    ],
    "path": [
        {
            "alias": null,
            "pid": null,
            "langcode": "en",
            "lang": "en"
        }
    ]
}